%YAML 1.1
%TAG !u! tag:unity3d.com,2011:
--- !u!74 &7400000
AnimationClip:
  m_ObjectHideFlags: 0
  m_CorrespondingSourceObject: {fileID: 0}
  m_PrefabInternal: {fileID: 0}
  m_Name: BatAttack
  serializedVersion: 6
  m_Legacy: 0
  m_Compressed: 0
  m_UseHighQualityCurve: 1
  m_RotationCurves: []
  m_CompressedRotationCurves: []
  m_EulerCurves: []
  m_PositionCurves: []
  m_ScaleCurves: []
  m_FloatCurves: []
  m_PPtrCurves:
  - curve:
    - time: 0
      value: {fileID: 21300000, guid: b336456875b652344a9a40722fe5b2bd, type: 3}
    - time: 0.06666667
      value: {fileID: 21300000, guid: 3ab3508ce43593148ac9f66ac7d231ef, type: 3}
    - time: 0.11666667
      value: {fileID: 21300000, guid: 4d5d3d3aaa8c0a543b6330b49f317b17, type: 3}
    - time: 0.18333334
      value: {fileID: 21300000, guid: d2137cc916993434ba2295d3ffea5945, type: 3}
    - time: 0.25
      value: {fileID: 21300000, guid: 2aaca4319a2537746b72c639cec88b4f, type: 3}
    - time: 0.3
      value: {fileID: 21300000, guid: 4e5839d0adbab664dbb8af03c162d13b, type: 3}
    - time: 0.36666667
      value: {fileID: 21300000, guid: e138951fb490db84cb2987883b693cd4, type: 3}
    - time: 0.41666666
      value: {fileID: 21300000, guid: bbd2851076af87e4684c7a150944ccb7, type: 3}
    - time: 0.48333332
      value: {fileID: 21300000, guid: df2cafba9d4d5824880463d6b6a8865a, type: 3}
    - time: 0.55
      value: {fileID: 21300000, guid: 01fcbe0606523a24a817a25d1946f9e9, type: 3}
    - time: 0.6
      value: {fileID: 21300000, guid: 40db819e1cf11764da7be0764c85cd54, type: 3}
    - time: 0.6666667
      value: {fileID: 21300000, guid: 482253311b7c6dc448b904e78989d95a, type: 3}
    attribute: m_Sprite
    path: 
    classID: 212
    script: {fileID: 0}
  m_SampleRate: 60
  m_WrapMode: 0
  m_Bounds:
    m_Center: {x: 0, y: 0, z: 0}
    m_Extent: {x: 0, y: 0, z: 0}
  m_ClipBindingConstant:
    genericBindings:
    - serializedVersion: 2
      path: 0
      attribute: 0
      script: {fileID: 0}
      typeID: 212
      customType: 23
      isPPtrCurve: 1
    pptrCurveMapping:
    - {fileID: 21300000, guid: b336456875b652344a9a40722fe5b2bd, type: 3}
    - {fileID: 21300000, guid: 3ab3508ce43593148ac9f66ac7d231ef, type: 3}
    - {fileID: 21300000, guid: 4d5d3d3aaa8c0a543b6330b49f317b17, type: 3}
    - {fileID: 21300000, guid: d2137cc916993434ba2295d3ffea5945, type: 3}
    - {fileID: 21300000, guid: 2aaca4319a2537746b72c639cec88b4f, type: 3}
    - {fileID: 21300000, guid: 4e5839d0adbab664dbb8af03c162d13b, type: 3}
    - {fileID: 21300000, guid: e138951fb490db84cb2987883b693cd4, type: 3}
    - {fileID: 21300000, guid: bbd2851076af87e4684c7a150944ccb7, type: 3}
    - {fileID: 21300000, guid: df2cafba9d4d5824880463d6b6a8865a, type: 3}
    - {fileID: 21300000, guid: 01fcbe0606523a24a817a25d1946f9e9, type: 3}
    - {fileID: 21300000, guid: 40db819e1cf11764da7be0764c85cd54, type: 3}
    - {fileID: 21300000, guid: 482253311b7c6dc448b904e78989d95a, type: 3}
  m_AnimationClipSettings:
    serializedVersion: 2
    m_AdditiveReferencePoseClip: {fileID: 0}
    m_AdditiveReferencePoseTime: 0
    m_StartTime: 0
    m_StopTime: 0.68333334
    m_OrientationOffsetY: 0
    m_Level: 0
    m_CycleOffset: 0
    m_HasAdditiveReferencePose: 0
    m_LoopTime: 1
    m_LoopBlend: 0
    m_LoopBlendOrientation: 0
    m_LoopBlendPositionY: 0
    m_LoopBlendPositionXZ: 0
    m_KeepOriginalOrientation: 0
    m_KeepOriginalPositionY: 1
    m_KeepOriginalPositionXZ: 0
    m_HeightFromFeet: 0
    m_Mirror: 0
  m_EditorCurves: []
  m_EulerEditorCurves: []
  m_HasGenericRootTransform: 0
  m_HasMotionFloatCurves: 0
  m_GenerateMotionCurves: 0
  m_Events:
  - time: 0.33333334
    functionName: DoDamageInArea
    data: 
    objectReferenceParameter: {fileID: 0}
    floatParameter: 0
    intParameter: 0
    messageOptions: 0
