%YAML 1.1
%TAG !u! tag:unity3d.com,2011:
--- !u!74 &7400000
AnimationClip:
  m_ObjectHideFlags: 0
  m_CorrespondingSourceObject: {fileID: 0}
  m_PrefabInternal: {fileID: 0}
  m_Name: BlackSpriteDie
  serializedVersion: 6
  m_Legacy: 0
  m_Compressed: 0
  m_UseHighQualityCurve: 1
  m_RotationCurves: []
  m_CompressedRotationCurves: []
  m_EulerCurves: []
  m_PositionCurves: []
  m_ScaleCurves: []
  m_FloatCurves: []
  m_PPtrCurves:
  - curve:
    - time: 0
      value: {fileID: 21300000, guid: 40fc9afce78f6094ea65450b94842cf8, type: 3}
    - time: 0.13333334
      value: {fileID: 21300000, guid: 21c020808d814d24d922fcd36f9ead8b, type: 3}
    - time: 0.28333333
      value: {fileID: 21300000, guid: 7e48c16c82628be4791f40e4fd0ce62d, type: 3}
    - time: 0.41666666
      value: {fileID: 21300000, guid: db6482c045dbbed44ab720fb686688ab, type: 3}
    - time: 0.56666666
      value: {fileID: 21300000, guid: cf351de45ea680446bef71ac57c12a9a, type: 3}
    - time: 0.7
      value: {fileID: 21300000, guid: b779f24c486fdde43bc06a63bb71ec19, type: 3}
    attribute: m_Sprite
    path: 
    classID: 212
    script: {fileID: 0}
  m_SampleRate: 60
  m_WrapMode: 0
  m_Bounds:
    m_Center: {x: 0, y: 0, z: 0}
    m_Extent: {x: 0, y: 0, z: 0}
  m_ClipBindingConstant:
    genericBindings:
    - serializedVersion: 2
      path: 0
      attribute: 0
      script: {fileID: 0}
      typeID: 212
      customType: 23
      isPPtrCurve: 1
    pptrCurveMapping:
    - {fileID: 21300000, guid: 40fc9afce78f6094ea65450b94842cf8, type: 3}
    - {fileID: 21300000, guid: 21c020808d814d24d922fcd36f9ead8b, type: 3}
    - {fileID: 21300000, guid: 7e48c16c82628be4791f40e4fd0ce62d, type: 3}
    - {fileID: 21300000, guid: db6482c045dbbed44ab720fb686688ab, type: 3}
    - {fileID: 21300000, guid: cf351de45ea680446bef71ac57c12a9a, type: 3}
    - {fileID: 21300000, guid: b779f24c486fdde43bc06a63bb71ec19, type: 3}
  m_AnimationClipSettings:
    serializedVersion: 2
    m_AdditiveReferencePoseClip: {fileID: 0}
    m_AdditiveReferencePoseTime: 0
    m_StartTime: 0
    m_StopTime: 0.71666664
    m_OrientationOffsetY: 0
    m_Level: 0
    m_CycleOffset: 0
    m_HasAdditiveReferencePose: 0
    m_LoopTime: 0
    m_LoopBlend: 0
    m_LoopBlendOrientation: 0
    m_LoopBlendPositionY: 0
    m_LoopBlendPositionXZ: 0
    m_KeepOriginalOrientation: 0
    m_KeepOriginalPositionY: 1
    m_KeepOriginalPositionXZ: 0
    m_HeightFromFeet: 0
    m_Mirror: 0
  m_EditorCurves: []
  m_EulerEditorCurves: []
  m_HasGenericRootTransform: 0
  m_HasMotionFloatCurves: 0
  m_GenerateMotionCurves: 0
  m_Events: []
